script_for_conference.utf8.md
…
## See spec(...) for full column specifications.

# print(df_input)
# df_input %>% print()
# df_input <- read_csv("survey_input.csv") %>% print()

# import excel ------------------------------------------------------------
library(readxl)

df_names <- read_excel("df_names.xlsx", sheet = "df_names")
df_names %>% arrange(section)

## # A tibble: 63 x 3
##    col_name section question_no
##    <chr>    <chr>         <dbl>
##  1 ID       A                 0
##  2 Itema1   A                 1
##  3 Itema2   A                 2
##  4 Itema3   A                 3
##  5 Itema4   A                 4
##  6 Itema5   A                 5
##  7 Itema6   A                 6
##  8 Se1      B                 1
##  9 Se2      B                 2
## 10 Se3      B                 3
## # ... with 53 more rows
…
